Ideal Geometry
Layer, Fibre,Ax + B
Dieter Notz (16.06.2008)
xxxxxxxxxxxxxxxxxxxxxxxxxxxxxxxxxxxxxxxxxx
20
1   1   -1.00081   -104.108   241528
1   2   -0.999362   -104.822   241528
1   3   -0.999301   -105.533   241528
1   4   -0.999607   -106.249   241528
1   5   -0.999067   -106.969   241528
1   6   -0.999034   -107.675   241528
1   7   -0.999298   -108.382   241528
1   8   -0.998894   -109.1   241528
1   9   -0.998954   -109.805   241528
1   10   -0.999094   -110.506   241528
1   11   -0.998761   -111.22   241528
1   12   -0.998788   -111.93   241528
1   13   -0.998674   -112.641   241528
1   14   -0.998427   -113.36   241528
1   15   -0.998607   -114.064   241528
1   16   -0.998586   -114.771   241528
1   17   -0.998388   -115.492   241528
1   18   -0.99865   -116.198   241528
1   19   -0.998772   -116.904   241528
1   20   -0.99853   -117.622   241528
1   21   -0.998737   -118.321   241528
1   22   -0.998726   -119.025   241528
1   23   -0.998331   -119.744   241528
1   24   -0.998683   -120.447   241528
1   25   -0.999028   -121.156   241528
1   26   -0.998558   -121.885   241528
1   27   -0.998765   -122.59   241528
1   28   -0.999042   -123.296   241528
1   29   -0.998732   -124.027   241528
1   30   -0.999403   -124.73   241528
1   31   -0.999312   -125.422   241528
1   32   -0.998609   -126.141   241528
1   33   -0.99929   -126.849   241528
1   34   -0.999348   -127.558   241528
1   35   -0.998746   -128.287   241528
1   36   -0.999226   -128.997   241528
1   37   -0.999459   -129.703   241528
1   38   -0.999553   -130.428   241528
1   39   -0.999913   -131.138   241528
1   40   -0.999604   -131.843   241528
1   41   -1.00016   -132.572   241528
1   42   -1.00089   -133.282   241528
1   43   -1.00009   -133.98   241528
1   44   -1.00027   -134.706   241528
1   45   -1.0013   -135.416   241528
1   46   -1.00101   -136.113   241528
1   47   -1.00118   -136.839   241528
1   48   -1.00201   -137.555   241528
1   49   -1.00177   -138.258   241528
1   50   -1.00319   -138.989   241528
1   51   -1.00421   -139.703   241528
1   52   -1.00308   -140.407   241528
1   53   -1.00335   -141.135   241528
1   54   -1.00401   -141.85   241528
1   55   -1.00408   -142.562   241528
1   56   -1.00402   -143.287   241528
1   57   -1.00475   -144.006   241528
1   58   -1.00557   -144.723   241528
1   59   -1.00526   -145.437   241528
1   60   -1.00589   -146.15   241528
1   61   -1.00715   -146.872   241528
1   62   -1.00722   -147.598   241528
1   63   -1.00804   -148.32   241528
1   64   -1.00775   -149.012   241528
2   1   1.00532   -148.893   241530
2   2   1.00502   -148.194   241530
2   3   1.00419   -147.47   241530
2   4   1.00413   -146.76   241530
2   5   1.00377   -146.064   241530
2   6   1.00287   -145.35   241530
2   7   1.00268   -144.629   241530
2   8   1.00308   -143.919   241530
2   9   1.00172   -143.183   241530
2   10   1.00096   -142.45   241530
2   11   1.00197   -141.758   241530
2   12   1.00119   -141.046   241530
2   13   1.00148   -140.334   241530
2   14   1.00202   -139.632   241530
2   15   1.00019   -138.906   241530
2   16   0.999494   -138.182   241530
2   17   1.00041   -137.484   241530
2   18   0.999674   -136.768   241530
2   19   0.999145   -136.043   241530
2   20   1.00004   -135.346   241530
2   21   0.999498   -134.636   241530
2   22   0.998757   -133.91   241530
2   23   0.998914   -133.193   241530
2   24   0.998704   -132.486   241530
2   25   0.998499   -131.776   241530
2   26   0.998942   -131.062   241530
2   27   0.999286   -130.356   241530
2   28   0.998871   -129.649   241530
2   29   0.998863   -128.939   241530
2   30   0.998378   -128.225   241530
2   31   0.998128   -127.505   241530
2   32   0.999063   -126.796   241530
2   33   0.998674   -126.09   241530
2   34   0.998418   -125.377   241530
2   35   0.998914   -124.67   241530
2   36   0.998582   -123.964   241530
2   37   0.998492   -123.246   241530
2   38   0.998909   -122.533   241530
2   39   0.998778   -121.826   241530
2   40   0.998749   -121.116   241530
2   41   0.9991   -120.416   241530
2   42   0.999038   -119.706   241530
2   43   0.998556   -118.997   241530
2   44   0.998538   -118.294   241530
2   45   0.998921   -117.591   241530
2   46   0.998974   -116.887   241530
2   47   0.998546   -116.172   241530
2   48   0.998485   -115.463   241530
2   49   0.998945   -114.752   241530
2   50   0.99872   -114.044   241530
2   51   0.998686   -113.345   241530
2   52   0.999165   -112.635   241530
2   53   0.998873   -111.919   241530
2   54   0.998814   -111.206   241530
2   55   0.999325   -110.493   241530
2   56   0.998855   -109.79   241530
2   57   0.998636   -109.082   241530
2   58   0.999022   -108.362   241530
2   59   0.998998   -107.648   241530
2   60   0.999138   -106.939   241530
2   61   0.999394   -106.217   241530
2   62   0.999113   -105.514   241530
2   63   0.998721   -104.824   241530
2   64   0.999371   -104.12   241530
3   1   -0.997162   -104.437   241530
3   2   -0.996502   -105.163   241530
3   3   -0.996739   -105.87   241530
3   4   -0.997019   -106.576   241530
3   5   -0.997044   -107.285   241530
3   6   -0.997063   -107.989   241530
3   7   -0.997046   -108.698   241530
3   8   -0.997127   -109.413   241530
3   9   -0.997182   -110.12   241530
3   10   -0.997313   -110.829   241530
3   11   -0.997488   -111.543   241530
3   12   -0.997646   -112.243   241530
3   13   -0.997696   -112.954   241530
3   14   -0.997691   -113.679   241530
3   15   -0.997789   -114.39   241530
3   16   -0.997786   -115.097   241530
3   17   -0.997763   -115.808   241530
3   18   -0.998223   -116.511   241530
3   19   -0.998606   -117.221   241530
3   20   -0.998633   -117.938   241530
3   21   -0.998836   -118.649   241530
3   22   -0.998855   -119.365   241530
3   23   -0.998843   -120.078   241530
3   24   -0.998974   -120.778   241530
3   25   -0.999035   -121.489   241530
3   26   -0.999187   -122.206   241530
3   27   -0.999215   -122.913   241530
3   28   -0.999064   -123.625   241530
3   29   -0.998781   -124.338   241530
3   30   -0.998871   -125.043   241530
3   31   -0.998957   -125.759   241530
3   32   -0.999074   -126.476   241530
3   33   -0.999448   -127.179   241530
3   34   -0.999394   -127.889   241530
3   35   -0.99931   -128.611   241530
3   36   -0.999296   -129.316   241530
3   37   -0.99916   -130.017   241530
3   38   -0.99918   -130.729   241530
3   39   -0.999426   -131.435   241530
3   40   -0.999563   -132.139   241530
3   41   -0.999732   -132.856   241530
3   42   -1   -133.566   241530
3   43   -1.00019   -134.281   241530
3   44   -1.00015   -134.999   241530
3   45   -1.00019   -135.705   241530
3   46   -1.00032   -136.417   241530
3   47   -1.00036   -137.133   241530
3   48   -1.00041   -137.837   241530
3   49   -1.00038   -138.552   241530
3   50   -1.0003   -139.272   241530
3   51   -1.00046   -139.975   241530
3   52   -1.00053   -140.683   241530
3   53   -1.00048   -141.407   241530
3   54   -1.0009   -142.125   241530
3   55   -1.00131   -142.845   241530
3   56   -1.00113   -143.558   241530
3   57   -1.00144   -144.258   241530
3   58   -1.00218   -144.975   241530
3   59   -1.00235   -145.697   241530
3   60   -1.00267   -146.405   241530
3   61   -1.00291   -147.107   241530
3   62   -1.00286   -147.809   241530
3   63   -1.00354   -148.519   241530
3   64   -1.00182   -149.182   241530
4   1   1.00818   -148.599   241532
4   2   1.00794   -147.893   241532
4   3   1.00705   -147.179   241532
4   4   1.0085   -146.497   241532
4   5   1.00788   -145.786   241532
4   6   1.00579   -145.057   241532
4   7   1.00536   -144.342   241532
4   8   1.00564   -143.628   241532
4   9   1.00587   -142.919   241532
4   10   1.00555   -142.206   241532
4   11   1.00522   -141.489   241532
4   12   1.00498   -140.781   241532
4   13   1.00514   -140.075   241532
4   14   1.00456   -139.359   241532
4   15   1.00415   -138.652   241532
4   16   1.00395   -137.938   241532
4   17   1.00422   -137.223   241532
4   18   1.00443   -136.513   241532
4   19   1.00411   -135.795   241532
4   20   1.00458   -135.083   241532
4   21   1.00402   -134.365   241532
4   22   1.00332   -133.643   241532
4   23   1.00354   -132.93   241532
4   24   1.00334   -132.219   241532
4   25   1.00294   -131.5   241532
4   26   1.00249   -130.787   241532
4   27   1.0023   -130.08   241532
4   28   1.00244   -129.362   241532
4   29   1.00239   -128.65   241532
4   30   1.00221   -127.949   241532
4   31   1.0018   -127.239   241532
4   32   1.00214   -126.521   241532
4   33   1.00239   -125.806   241532
4   34   1.00198   -125.09   241532
4   35   1.0021   -124.377   241532
4   36   1.00192   -123.665   241532
4   37   1.00171   -122.951   241532
4   38   1.00183   -122.241   241532
4   39   1.00144   -121.532   241532
4   40   1.00124   -120.819   241532
4   41   1.00128   -120.114   241532
4   42   1.0011   -119.411   241532
4   43   1.00114   -118.7   241532
4   44   1.00141   -117.986   241532
4   45   1.00128   -117.28   241532
4   46   1.00094   -116.575   241532
4   47   1.0012   -115.865   241532
4   48   1.00118   -115.157   241532
4   49   1.00072   -114.444   241532
4   50   1.00098   -113.731   241532
4   51   1.00109   -113.021   241532
4   52   1.00065   -112.31   241532
4   53   1.00058   -111.606   241532
4   54   1.00075   -110.904   241532
4   55   1.0005   -110.196   241532
4   56   1.00048   -109.484   241532
4   57   1.00071   -108.779   241532
4   58   1.00036   -108.073   241532
4   59   1.00045   -107.361   241532
4   60   1.00059   -106.653   241532
4   61   1.00006   -105.946   241532
4   62   0.999898   -105.246   241532
4   63   0.999939   -104.548   241532
4   64   0.999549   -103.862   241532
5   1   -0.998063   -104.017   241532
5   2   -0.997717   -104.724   241532
5   3   -0.997897   -105.423   241532
5   4   -0.997996   -106.129   241532
5   5   -0.997731   -106.85   241532
5   6   -0.997773   -107.552   241532
5   7   -0.997868   -108.26   241532
5   8   -0.997619   -108.985   241532
5   9   -0.997617   -109.69   241532
5   10   -0.99779   -110.395   241532
5   11   -0.997653   -111.113   241532
5   12   -0.997748   -111.817   241532
5   13   -0.99777   -112.529   241532
5   14   -0.997499   -113.241   241532
5   15   -0.997753   -113.94   241532
5   16   -0.997921   -114.653   241532
5   17   -0.99758   -115.37   241532
5   18   -0.997707   -116.074   241532
5   19   -0.997723   -116.787   241532
5   20   -0.99731   -117.504   241532
5   21   -0.997523   -118.21   241532
5   22   -0.997663   -118.923   241532
5   23   -0.997331   -119.636   241532
5   24   -0.997604   -120.334   241532
5   25   -0.99765   -121.041   241532
5   26   -0.997287   -121.756   241532
5   27   -0.997363   -122.456   241532
5   28   -0.997356   -123.163   241532
5   29   -0.997074   -123.877   241532
5   30   -0.997018   -124.58   241532
5   31   -0.997045   -125.291   241532
5   32   -0.997192   -126.016   241532
5   33   -0.997241   -126.726   241532
5   34   -0.996639   -127.429   241532
5   35   -0.996536   -128.145   241532
5   36   -0.997002   -128.848   241532
5   37   -0.996723   -129.549   241532
5   38   -0.996773   -130.268   241532
5   39   -0.997048   -130.975   241532
5   40   -0.996607   -131.673   241532
5   41   -0.996543   -132.389   241532
5   42   -0.99696   -133.098   241532
5   43   -0.996729   -133.803   241532
5   44   -0.996558   -134.522   241532
5   45   -0.997161   -135.226   241532
5   46   -0.996991   -135.928   241532
5   47   -0.996827   -136.649   241532
5   48   -0.997445   -137.367   241532
5   49   -0.997196   -138.075   241532
5   50   -0.996647   -138.785   241532
5   51   -0.997637   -139.493   241532
5   52   -0.997843   -140.202   241532
5   53   -0.997025   -140.913   241532
5   54   -0.997913   -141.625   241532
5   55   -0.998466   -142.345   241532
5   56   -0.997849   -143.061   241532
5   57   -0.998836   -143.776   241532
5   58   -0.999888   -144.5   241532
5   59   -0.999433   -145.215   241532
5   60   -1.00018   -145.93   241532
5   61   -1.00133   -146.651   241532
5   62   -1.00086   -147.351   241532
5   63   -1.00117   -148.056   241532
5   64   -1.00184   -148.77   241532
6   1   1.00547   -149.129   241534
6   2   1.00539   -148.426   241534
6   3   1.00486   -147.711   241534
6   4   1.00425   -146.998   241534
6   5   1.00441   -146.295   241534
6   6   1.00379   -145.573   241534
6   7   1.00247   -144.845   241534
6   8   1.00263   -144.134   241534
6   9   1.00213   -143.408   241534
6   10   1.0012   -142.683   241534
6   11   1.00119   -141.976   241534
6   12   1.00042   -141.261   241534
6   13   1.00008   -140.552   241534
6   14   1.00042   -139.844   241534
6   15   0.9995   -139.119   241534
6   16   0.998861   -138.4   241534
6   17   0.999405   -137.694   241534
6   18   0.998595   -136.974   241534
6   19   0.997382   -136.248   241534
6   20   0.998021   -135.551   241534
6   21   0.997792   -134.849   241534
6   22   0.996893   -134.127   241534
6   23   0.997277   -133.416   241534
6   24   0.997081   -132.709   241534
6   25   0.99666   -131.997   241534
6   26   0.997571   -131.297   241534
6   27   0.997517   -130.594   241534
6   28   0.996776   -129.876   241534
6   29   0.997617   -129.171   241534
6   30   0.997658   -128.46   241534
6   31   0.997182   -127.745   241534
6   32   0.997967   -127.042   241534
6   33   0.997959   -126.332   241534
6   34   0.997467   -125.616   241534
6   35   0.998452   -124.915   241534
6   36   0.998793   -124.216   241534
6   37   0.998324   -123.505   241534
6   38   0.998826   -122.794   241534
6   39   0.999307   -122.09   241534
6   40   0.999182   -121.381   241534
6   41   0.999141   -120.668   241534
6   42   0.999031   -119.962   241534
6   43   0.99862   -119.254   241534
6   44   0.998657   -118.532   241534
6   45   0.998796   -117.825   241534
6   46   0.998517   -117.12   241534
6   47   0.998686   -116.408   241534
6   48   0.999043   -115.702   241534
6   49   0.99893   -114.992   241534
6   50   0.999068   -114.268   241534
6   51   0.999248   -113.555   241534
6   52   0.99904   -112.852   241534
6   53   0.999064   -112.14   241534
6   54   0.999178   -111.429   241534
6   55   0.998884   -110.72   241534
6   56   0.998822   -110.012   241534
6   57   0.998985   -109.306   241534
6   58   0.998937   -108.599   241534
6   59   0.9989   -107.89   241534
6   60   0.998903   -107.181   241534
6   61   0.998864   -106.461   241534
6   62   0.99888   -105.741   241534
6   63   0.999468   -105.024   241534
6   64   1.00142   -104.303   241534
7   1   -0.999854   -104.262   241534
7   2   -0.998717   -104.978   241534
7   3   -0.999239   -105.679   241534
7   4   -0.999582   -106.385   241534
7   5   -0.999055   -107.111   241534
7   6   -0.999274   -107.819   241534
7   7   -0.999467   -108.529   241534
7   8   -0.998822   -109.248   241534
7   9   -0.999166   -109.947   241534
7   10   -0.999466   -110.648   241534
7   11   -0.998745   -111.363   241534
7   12   -0.998919   -112.067   241534
7   13   -0.998896   -112.78   241534
7   14   -0.998271   -113.506   241534
7   15   -0.998628   -114.211   241534
7   16   -0.998944   -114.918   241534
7   17   -0.998516   -115.635   241534
7   18   -0.998648   -116.34   241534
7   19   -0.998782   -117.049   241534
7   20   -0.99814   -117.762   241534
7   21   -0.99811   -118.461   241534
7   22   -0.998044   -119.167   241534
7   23   -0.997653   -119.881   241534
7   24   -0.997911   -120.573   241534
7   25   -0.998296   -121.269   241534
7   26   -0.99812   -121.982   241534
7   27   -0.998101   -122.684   241534
7   28   -0.998332   -123.39   241534
7   29   -0.997778   -124.097   241534
7   30   -0.997968   -124.794   241534
7   31   -0.998563   -125.504   241534
7   32   -0.998071   -126.218   241534
7   33   -0.997964   -126.917   241534
7   34   -0.99822   -127.627   241534
7   35   -0.997853   -128.341   241534
7   36   -0.998345   -129.048   241534
7   37   -0.998968   -129.761   241534
7   38   -0.999291   -130.477   241534
7   39   -0.999593   -131.185   241534
7   40   -0.998982   -131.892   241534
7   41   -0.999572   -132.614   241534
7   42   -1.00019   -133.33   241534
7   43   -0.999701   -134.038   241534
7   44   -1.00051   -134.75   241534
7   45   -1.00116   -135.459   241534
7   46   -1.00076   -136.17   241534
7   47   -1.00161   -136.898   241534
7   48   -1.00236   -137.613   241534
7   49   -1.00198   -138.318   241534
7   50   -1.00279   -139.046   241534
7   51   -1.00349   -139.759   241534
7   52   -1.0032   -140.471   241534
7   53   -1.00423   -141.209   241534
7   54   -1.00493   -141.926   241534
7   55   -1.00461   -142.629   241534
7   56   -1.00542   -143.357   241534
7   57   -1.0063   -144.077   241534
7   58   -1.00607   -144.785   241534
7   59   -1.00656   -145.506   241534
7   60   -1.00778   -146.231   241534
7   61   -1.00743   -146.932   241534
7   62   -1.00759   -147.635   241534
7   63   -1.00877   -148.358   241534
7   64   -1.00939   -149.072   241534
8   1   1.00217   -148.684   241536
8   2   1.0044   -148.023   241536
8   3   1.00345   -147.303   241536
8   4   1.00221   -146.578   241536
8   5   1.00235   -145.87   241536
8   6   1.00249   -145.167   241536
8   7   1.00132   -144.433   241536
8   8   1.00163   -143.713   241536
8   9   1.00073   -142.992   241536
8   10   0.999323   -142.268   241536
8   11   1.00017   -141.574   241536
8   12   0.99969   -140.865   241536
8   13   0.998799   -140.136   241536
8   14   0.999221   -139.419   241536
8   15   0.999023   -138.711   241536
8   16   0.998028   -137.99   241536
8   17   0.998026   -137.278   241536
8   18   0.998158   -136.572   241536
8   19   0.998175   -135.86   241536
8   20   0.998611   -135.16   241536
8   21   0.998109   -134.458   241536
8   22   0.997821   -133.739   241536
8   23   0.998038   -133.027   241536
8   24   0.997787   -132.314   241536
8   25   0.997558   -131.594   241536
8   26   0.997189   -130.883   241536
8   27   0.997275   -130.179   241536
8   28   0.998066   -129.478   241536
8   29   0.997607   -128.766   241536
8   30   0.997525   -128.063   241536
8   31   0.998147   -127.36   241536
8   32   0.99755   -126.653   241536
8   33   0.997782   -125.955   241536
8   34   0.998427   -125.242   241536
8   35   0.99802   -124.528   241536
8   36   0.998161   -123.827   241536
8   37   0.998617   -123.115   241536
8   38   0.998755   -122.407   241536
8   39   0.999167   -121.709   241536
8   40   0.999318   -121.005   241536
8   41   0.999242   -120.299   241536
8   42   0.999168   -119.591   241536
8   43   0.999189   -118.881   241536
8   44   0.999375   -118.172   241536
8   45   0.999373   -117.472   241536
8   46   0.999233   -116.769   241536
8   47   0.999373   -116.065   241536
8   48   0.999436   -115.362   241536
8   49   0.99927   -114.645   241536
8   50   0.999573   -113.932   241536
8   51   0.999856   -113.222   241536
8   52   0.99967   -112.505   241536
8   53   0.999812   -111.792   241536
8   54   1.00014   -111.092   241536
8   55   0.999951   -110.384   241536
8   56   0.999579   -109.679   241536
8   57   0.999808   -108.973   241536
8   58   1.00012   -108.261   241536
8   59   1.00018   -107.554   241536
8   60   1.00028   -106.844   241536
8   61   1.00032   -106.126   241536
8   62   1.00023   -105.418   241536
8   63   1.00011   -104.717   241536
8   64   1.00043   -104.014   241536
9   1   -1.00084   -103.844   241536
9   2   -0.99968   -104.545   241536
9   3   -0.999927   -105.246   241536
9   4   -1.00002   -105.955   241536
9   5   -1.00002   -106.666   241536
9   6   -0.999881   -107.377   241536
9   7   -0.999687   -108.098   241536
9   8   -0.999763   -108.812   241536
9   9   -0.999881   -109.515   241536
9   10   -0.999899   -110.222   241536
9   11   -0.999759   -110.934   241536
9   12   -0.99969   -111.641   241536
9   13   -0.999762   -112.353   241536
9   14   -0.999764   -113.06   241536
9   15   -0.999509   -113.77   241536
9   16   -0.999537   -114.482   241536
9   17   -0.999456   -115.188   241536
9   18   -0.999347   -115.893   241536
9   19   -0.999412   -116.604   241536
9   20   -0.999194   -117.31   241536
9   21   -0.999162   -118.009   241536
9   22   -0.999487   -118.71   241536
9   23   -0.999448   -119.41   241536
9   24   -0.999273   -120.113   241536
9   25   -0.999526   -120.827   241536
9   26   -0.999697   -121.538   241536
9   27   -0.999233   -122.241   241536
9   28   -0.99881   -122.955   241536
9   29   -0.999167   -123.673   241536
9   30   -0.998894   -124.386   241536
9   31   -0.998434   -125.102   241536
9   32   -0.999164   -125.819   241536
9   33   -0.998985   -126.523   241536
9   34   -0.998162   -127.213   241536
9   35   -0.999118   -127.921   241536
9   36   -0.999468   -128.63   241536
9   37   -0.99852   -129.327   241536
9   38   -0.998864   -130.037   241536
9   39   -0.999279   -130.74   241536
9   40   -0.998886   -131.444   241536
9   41   -0.998977   -132.163   241536
9   42   -0.99946   -132.867   241536
9   43   -0.99966   -133.576   241536
9   44   -0.999548   -134.293   241536
9   45   -0.999838   -135.001   241536
9   46   -1.00036   -135.718   241536
9   47   -1.0004   -136.432   241536
9   48   -1.00055   -137.127   241536
9   49   -1.00105   -137.84   241536
9   50   -1.00069   -138.558   241536
9   51   -1.00104   -139.263   241536
9   52   -1.00198   -139.98   241536
9   53   -1.00145   -140.69   241536
9   54   -1.00217   -141.401   241536
9   55   -1.00351   -142.128   241536
9   56   -1.00276   -142.837   241536
9   57   -1.00313   -143.547   241536
9   58   -1.00451   -144.275   241536
9   59   -1.00424   -144.988   241536
9   60   -1.00445   -145.697   241536
9   61   -1.00539   -146.41   241536
9   62   -1.00525   -147.116   241536
9   63   -1.00561   -147.827   241536
9   64   -1.00523   -148.519   241536
10   1   0.996997   -149.014   241538
10   2   0.999457   -148.354   241538
10   3   0.999544   -147.653   241538
10   4   0.999553   -146.95   241538
10   5   0.999437   -146.248   241538
10   6   0.998579   -145.526   241538
10   7   0.998363   -144.808   241538
10   8   0.999369   -144.114   241538
10   9   0.998974   -143.402   241538
10   10   0.99826   -142.683   241538
10   11   0.999364   -141.995   241538
10   12   0.998646   -141.281   241538
10   13   0.996981   -140.558   241538
10   14   0.99845   -139.873   241538
10   15   0.999023   -139.168   241538
10   16   0.998049   -138.444   241538
10   17   0.998097   -137.745   241538
10   18   0.997617   -137.033   241538
10   19   0.997631   -136.315   241538
10   20   0.998467   -135.622   241538
10   21   0.997909   -134.913   241538
10   22   0.997591   -134.198   241538
10   23   0.998631   -133.507   241538
10   24   0.997915   -132.799   241538
10   25   0.997629   -132.078   241538
10   26   0.998736   -131.376   241538
10   27   0.998271   -130.67   241538
10   28   0.997707   -129.949   241538
10   29   0.997879   -129.24   241538
10   30   0.997623   -128.53   241538
10   31   0.997897   -127.809   241538
10   32   0.998619   -127.1   241538
10   33   0.998379   -126.395   241538
10   34   0.998016   -125.686   241538
10   35   0.998722   -124.984   241538
10   36   0.998199   -124.275   241538
10   37   0.997716   -123.566   241538
10   38   0.99869   -122.862   241538
10   39   0.998622   -122.152   241538
10   40   0.998531   -121.437   241538
10   41   0.998434   -120.723   241538
10   42   0.998342   -120.016   241538
10   43   0.998651   -119.313   241538
10   44   0.998408   -118.613   241538
10   45   0.998163   -117.91   241538
10   46   0.998303   -117.2   241538
10   47   0.998599   -116.49   241538
10   48   0.998496   -115.786   241538
10   49   0.998508   -115.078   241538
10   50   0.998608   -114.364   241538
10   51   0.998608   -113.661   241538
10   52   0.998398   -112.959   241538
10   53   0.99848   -112.248   241538
10   54   0.998765   -111.538   241538
10   55   0.998776   -110.827   241538
10   56   0.998576   -110.114   241538
10   57   0.998468   -109.407   241538
10   58   0.998814   -108.687   241538
10   59   0.998879   -107.97   241538
10   60   0.998682   -107.266   241538
10   61   0.998758   -106.554   241538
10   62   0.99854   -105.848   241538
10   63   0.998397   -105.149   241538
10   64   1.00108   -104.439   241538
11   1   -0.997656   -104.532   241538
11   2   -0.997464   -105.234   241538
11   3   -0.997485   -105.941   241538
11   4   -0.997508   -106.653   241538
11   5   -0.997635   -107.363   241538
11   6   -0.997466   -108.074   241538
11   7   -0.997302   -108.782   241538
11   8   -0.997511   -109.483   241538
11   9   -0.997842   -110.192   241538
11   10   -0.997897   -110.906   241538
11   11   -0.997876   -111.616   241538
11   12   -0.9977   -112.327   241538
11   13   -0.997398   -113.037   241538
11   14   -0.997457   -113.742   241538
11   15   -0.997254   -114.45   241538
11   16   -0.997276   -115.164   241538
11   17   -0.997771   -115.875   241538
11   18   -0.997544   -116.581   241538
11   19   -0.997016   -117.284   241538
11   20   -0.997464   -117.984   241538
11   21   -0.99748   -118.693   241538
11   22   -0.997025   -119.4   241538
11   23   -0.997847   -120.101   241538
11   24   -0.998179   -120.808   241538
11   25   -0.997549   -121.508   241538
11   26   -0.997964   -122.207   241538
11   27   -0.997881   -122.914   241538
11   28   -0.996921   -123.625   241538
11   29   -0.997268   -124.338   241538
11   30   -0.997533   -125.047   241538
11   31   -0.997089   -125.758   241538
11   32   -0.997412   -126.469   241538
11   33   -0.997438   -127.181   241538
11   34   -0.996991   -127.891   241538
11   35   -0.997155   -128.594   241538
11   36   -0.997204   -129.301   241538
11   37   -0.996777   -130.003   241538
11   38   -0.996964   -130.714   241538
11   39   -0.997135   -131.428   241538
11   40   -0.996736   -132.135   241538
11   41   -0.996799   -132.85   241538
11   42   -0.996915   -133.559   241538
11   43   -0.99683   -134.259   241538
11   44   -0.997024   -134.966   241538
11   45   -0.997311   -135.673   241538
11   46   -0.997097   -136.368   241538
11   47   -0.997607   -137.076   241538
11   48   -0.997975   -137.786   241538
11   49   -0.997297   -138.487   241538
11   50   -0.997459   -139.205   241538
11   51   -0.997564   -139.914   241538
11   52   -0.997124   -140.617   241538
11   53   -0.99723   -141.336   241538
11   54   -0.997704   -142.048   241538
11   55   -0.997787   -142.753   241538
11   56   -0.998028   -143.469   241538
11   57   -0.998321   -144.186   241538
11   58   -0.998299   -144.895   241538
11   59   -0.998507   -145.612   241538
11   60   -0.999019   -146.33   241538
11   61   -0.998903   -147.03   241538
11   62   -0.998463   -147.732   241538
11   63   -0.998705   -148.445   241538
11   64   -0.998765   -149.156   241538
12   1   0.999868   -148.531   241540
12   2   1.00383   -147.858   241540
12   3   1.00435   -147.147   241540
12   4   1.00329   -146.425   241540
12   5   1.00223   -145.684   241540
12   6   1.00171   -144.974   241540
12   7   1.00165   -144.276   241540
12   8   1.00103   -143.541   241540
12   9   1.00121   -142.84   241540
12   10   1.00138   -142.145   241540
12   11   1.00493   -141.449   241540
12   12   1.00546   -140.736   241540
12   13   1.00102   -139.993   241540
12   14   0.999155   -139.265   241540
12   15   0.998533   -138.545   241540
12   16   0.999258   -137.844   241540
12   17   0.999051   -137.138   241540
12   18   0.998163   -136.422   241540
12   19   0.998789   -135.716   241540
12   20   0.998873   -135.011   241540
12   21   0.99777   -134.294   241540
12   22   0.998114   -133.588   241540
12   23   0.998357   -132.887   241540
12   24   0.997396   -132.17   241540
12   25   0.997654   -131.46   241540
12   26   0.997957   -130.762   241540
12   27   0.996811   -130.047   241540
12   28   0.996733   -129.334   241540
12   29   0.997431   -128.641   241540
12   30   0.996554   -127.933   241540
12   31   0.996407   -127.226   241540
12   32   0.997108   -126.533   241540
12   33   0.99651   -125.815   241540
12   34   0.996339   -125.091   241540
12   35   0.996475   -124.386   241540
12   36   0.996221   -123.682   241540
12   37   0.996687   -122.973   241540
12   38   0.99682   -122.264   241540
12   39   0.996556   -121.553   241540
12   40   0.996917   -120.841   241540
12   41   0.996723   -120.125   241540
12   42   0.996587   -119.413   241540
12   43   0.997539   -118.703   241540
12   44   0.997022   -118.003   241540
12   45   0.996361   -117.307   241540
12   46   0.997502   -116.597   241540
12   47   0.997227   -115.885   241540
12   48   0.996815   -115.174   241540
12   49   0.997762   -114.46   241540
12   50   0.997406   -113.742   241540
12   51   0.997002   -113.021   241540
12   52   0.997777   -112.306   241540
12   53   0.997393   -111.599   241540
12   54   0.997054   -110.889   241540
12   55   0.997889   -110.169   241540
12   56   0.997327   -109.463   241540
12   57   0.996967   -108.764   241540
12   58   0.998039   -108.049   241540
12   59   0.997709   -107.339   241540
12   60   0.997469   -106.633   241540
12   61   0.998323   -105.923   241540
12   62   0.997929   -105.218   241540
12   63   0.99738   -104.515   241540
12   64   0.998511   -103.804   241540
13   1   -1.00139   -104.045   241540
13   2   -0.99893   -104.754   241540
13   3   -0.999278   -105.448   241540
13   4   -0.999406   -106.157   241540
13   5   -0.998854   -106.885   241540
13   6   -0.99922   -107.585   241540
13   7   -0.999644   -108.287   241540
13   8   -0.999078   -109.01   241540
13   9   -0.99951   -109.712   241540
13   10   -1.00001   -110.419   241540
13   11   -0.999217   -111.146   241540
13   12   -0.999227   -111.849   241540
13   13   -0.999401   -112.554   241540
13   14   -0.998831   -113.274   241540
13   15   -0.999263   -113.962   241540
13   16   -0.999538   -114.66   241540
13   17   -0.998918   -115.384   241540
13   18   -0.999386   -116.08   241540
13   19   -0.999595   -116.782   241540
13   20   -0.998846   -117.506   241540
13   21   -0.99955   -118.204   241540
13   22   -1.00003   -118.905   241540
13   23   -0.998937   -119.616   241540
13   24   -0.999232   -120.319   241540
13   25   -0.99996   -121.036   241540
13   26   -0.998933   -121.757   241540
13   27   -0.998902   -122.458   241540
13   28   -0.999328   -123.155   241540
13   29   -0.998088   -123.87   241540
13   30   -0.998384   -124.576   241540
13   31   -0.999068   -125.274   241540
13   32   -0.998259   -125.984   241540
13   33   -0.998684   -126.691   241540
13   34   -0.998597   -127.394   241540
13   35   -0.998489   -128.114   241540
13   36   -0.999377   -128.821   241540
13   37   -0.998698   -129.518   241540
13   38   -0.998349   -130.236   241540
13   39   -0.999584   -130.94   241540
13   40   -0.999496   -131.636   241540
13   41   -0.998833   -132.353   241540
13   42   -0.999975   -133.066   241540
13   43   -0.99995   -133.764   241540
13   44   -0.999259   -134.479   241540
13   45   -1.00023   -135.19   241540
13   46   -0.999986   -135.89   241540
13   47   -0.999097   -136.609   241540
13   48   -1.00044   -137.324   241540
13   49   -1.00065   -138.022   241540
13   50   -0.99938   -138.73   241540
13   51   -1.00057   -139.451   241540
13   52   -1.00102   -140.159   241540
13   53   -1.00046   -140.881   241540
13   54   -1.00129   -141.607   241540
13   55   -0.999425   -142.287   241540
13   56   -0.997578   -142.985   241540
13   57   -0.998934   -143.715   241540
13   58   -0.998719   -144.417   241540
13   59   -0.998228   -145.133   241540
13   60   -1.00018   -145.86   241540
13   61   -1.0001   -146.548   241540
13   62   -0.998663   -147.241   241540
13   63   -0.997703   -147.924   241540
13   64   -0.997472   -148.621   241540
14   1   0.998948   -148.844   241542
14   2   0.999115   -148.148   241542
14   3   0.998949   -147.444   241542
14   4   0.998361   -146.728   241542
14   5   0.998479   -146.026   241542
14   6   0.998555   -145.323   241542
14   7   0.996826   -144.589   241542
14   8   0.997149   -143.886   241542
14   9   0.99749   -143.182   241542
14   10   0.996166   -142.455   241542
14   11   0.996834   -141.757   241542
14   12   0.996788   -141.054   241542
14   13   0.995295   -140.33   241542
14   14   0.996086   -139.626   241542
14   15   0.996133   -138.916   241542
14   16   0.994692   -138.197   241542
14   17   0.995687   -137.495   241542
14   18   0.995476   -136.774   241542
14   19   0.99425   -136.059   241542
14   20   0.99495   -135.37   241542
14   21   0.994596   -134.657   241542
14   22   0.99399   -133.942   241542
14   23   0.993929   -133.235   241542
14   24   0.99359   -132.528   241542
14   25   0.993659   -131.83   241542
14   26   0.993592   -131.126   241542
14   27   0.993499   -130.423   241542
14   28   0.993774   -129.721   241542
14   29   0.993909   -129.017   241542
14   30   0.994153   -128.312   241542
14   31   0.994233   -127.602   241542
14   32   0.994173   -126.899   241542
14   33   0.99432   -126.199   241542
14   34   0.994397   -125.488   241542
14   35   0.994433   -124.782   241542
14   36   0.994658   -124.084   241542
14   37   0.994806   -123.373   241542
14   38   0.995083   -122.669   241542
14   39   0.995329   -121.97   241542
14   40   0.995547   -121.264   241542
14   41   0.995695   -120.565   241542
14   42   0.99563   -119.868   241542
14   43   0.995688   -119.156   241542
14   44   0.995533   -118.446   241542
14   45   0.995538   -117.743   241542
14   46   0.995841   -117.028   241542
14   47   0.996085   -116.32   241542
14   48   0.996169   -115.616   241542
14   49   0.996235   -114.901   241542
14   50   0.996154   -114.188   241542
14   51   0.996463   -113.485   241542
14   52   0.996542   -112.779   241542
14   53   0.996285   -112.077   241542
14   54   0.996383   -111.376   241542
14   55   0.996498   -110.656   241542
14   56   0.996325   -109.942   241542
14   57   0.996139   -109.243   241542
14   58   0.996426   -108.529   241542
14   59   0.996499   -107.813   241542
14   60   0.996572   -107.106   241542
14   61   0.997517   -106.392   241542
14   62   0.997111   -105.686   241542
14   63   0.99601   -104.988   241542
14   64   0.997291   -104.269   241542
15   1   -0.999234   -104.336   241542
15   2   -0.998641   -105.035   241542
15   3   -0.998619   -105.744   241542
15   4   -0.998693   -106.449   241542
15   5   -0.998899   -107.151   241542
15   6   -0.998626   -107.862   241542
15   7   -0.998301   -108.573   241542
15   8   -0.998704   -109.271   241542
15   9   -0.998513   -109.98   241542
15   10   -0.998376   -110.688   241542
15   11   -0.999133   -111.384   241542
15   12   -0.998807   -112.098   241542
15   13   -0.998123   -112.81   241542
15   14   -0.998815   -113.505   241542
15   15   -0.998659   -114.214   241542
15   16   -0.997963   -114.921   241542
15   17   -0.998446   -115.618   241542
15   18   -0.99857   -116.327   241542
15   19   -0.998069   -117.041   241542
15   20   -0.997615   -117.755   241542
15   21   -0.997961   -118.46   241542
15   22   -0.997985   -119.17   241542
15   23   -0.997166   -119.884   241542
15   24   -0.998081   -120.574   241542
15   25   -0.998753   -121.274   241542
15   26   -0.997507   -122   241542
15   27   -0.997971   -122.706   241542
15   28   -0.998295   -123.409   241542
15   29   -0.996741   -124.127   241542
15   30   -0.996693   -124.835   241542
15   31   -0.997127   -125.535   241542
15   32   -0.997103   -126.239   241542
15   33   -0.997301   -126.944   241542
15   34   -0.997014   -127.644   241542
15   35   -0.997338   -128.35   241542
15   36   -0.997323   -129.061   241542
15   37   -0.996305   -129.766   241542
15   38   -0.996669   -130.481   241542
15   39   -0.997207   -131.194   241542
15   40   -0.996634   -131.895   241542
15   41   -0.997011   -132.604   241542
15   42   -0.997595   -133.312   241542
15   43   -0.996874   -134.009   241542
15   44   -0.997083   -134.718   241542
15   45   -0.997889   -135.431   241542
15   46   -0.997465   -136.131   241542
15   47   -0.997453   -136.847   241542
15   48   -0.998428   -137.566   241542
15   49   -0.99842   -138.271   241542
15   50   -0.998143   -138.982   241542
15   51   -0.99894   -139.699   241542
15   52   -0.999019   -140.402   241542
15   53   -0.999042   -141.114   241542
15   54   -1.00005   -141.836   241542
15   55   -0.999867   -142.534   241542
15   56   -0.999834   -143.242   241542
15   57   -1.00111   -143.974   241542
15   58   -1.00091   -144.682   241542
15   59   -1.00112   -145.399   241542
15   60   -1.00208   -146.124   241542
15   61   -1.00181   -146.832   241542
15   62   -1.00242   -147.559   241542
15   63   -1.00324   -148.276   241542
15   64   -1.00238   -148.967   241542
16   1   1.00299   -148.622   241544
16   2   1.00372   -147.923   241544
16   3   1.0042   -147.223   241544
16   4   1.00313   -146.495   241544
16   5   1.003   -145.782   241544
16   6   1.0033   -145.078   241544
16   7   1.00255   -144.358   241544
16   8   1.00246   -143.649   241544
16   9   1.00238   -142.936   241544
16   10   1.00181   -142.214   241544
16   11   1.0022   -141.509   241544
16   12   1.00179   -140.791   241544
16   13   1.00083   -140.072   241544
16   14   1.00164   -139.379   241544
16   15   1.00127   -138.666   241544
16   16   1.00021   -137.948   241544
16   17   1.00157   -137.261   241544
16   18   1.00116   -136.541   241544
16   19   0.999738   -135.812   241544
16   20   1.00078   -135.117   241544
16   21   1.00048   -134.401   241544
16   22   0.999663   -133.686   241544
16   23   1.00086   -133.003   241544
16   24   1.00034   -132.287   241544
16   25   0.999145   -131.557   241544
16   26   0.999802   -130.852   241544
16   27   0.999516   -130.141   241544
16   28   0.998995   -129.441   241544
16   29   0.999795   -128.742   241544
16   30   0.999513   -128.026   241544
16   31   0.998183   -127.308   241544
16   32   0.999122   -126.602   241544
16   33   0.999548   -125.896   241544
16   34   0.998993   -125.191   241544
16   35   1.00008   -124.489   241544
16   36   0.99963   -123.775   241544
16   37   0.998836   -123.067   241544
16   38   0.999159   -122.357   241544
16   39   0.998974   -121.64   241544
16   40   0.998874   -120.935   241544
16   41   0.99896   -120.225   241544
16   42   0.998864   -119.512   241544
16   43   0.998927   -118.807   241544
16   44   0.998474   -118.096   241544
16   45   0.998515   -117.385   241544
16   46   0.999497   -116.683   241544
16   47   0.999187   -115.971   241544
16   48   0.999055   -115.258   241544
16   49   0.999739   -114.552   241544
16   50   0.999273   -113.841   241544
16   51   0.999402   -113.13   241544
16   52   0.999982   -112.423   241544
16   53   0.999311   -111.718   241544
16   54   0.999373   -111.009   241544
16   55   0.999898   -110.299   241544
16   56   0.99981   -109.59   241544
16   57   0.999909   -108.883   241544
16   58   0.999881   -108.177   241544
16   59   1.00004   -107.469   241544
16   60   1.00013   -106.76   241544
16   61   0.999926   -106.049   241544
16   62   0.999402   -105.347   241544
16   63   0.999259   -104.641   241544
16   64   1.00236   -103.922   241544
17   1   -0.9998   -103.911   241544
17   2   -1.0001   -104.604   241544
17   3   -1.00053   -105.303   241544
17   4   -1.0007   -106.007   241544
17   5   -1.00105   -106.718   241544
17   6   -1.00061   -107.432   241544
17   7   -1.00028   -108.148   241544
17   8   -1.00079   -108.857   241544
17   9   -1.00046   -109.565   241544
17   10   -1.00018   -110.285   241544
17   11   -1.00067   -111   241544
17   12   -1.00066   -111.71   241544
17   13   -1.0005   -112.419   241544
17   14   -1.0007   -113.124   241544
17   15   -1.00072   -113.83   241544
17   16   -1.00068   -114.539   241544
17   17   -1.00076   -115.248   241544
17   18   -1.0007   -115.953   241544
17   19   -1.00061   -116.661   241544
17   20   -1.00086   -117.375   241544
17   21   -1.00086   -118.078   241544
17   22   -1.0007   -118.779   241544
17   23   -1.00089   -119.493   241544
17   24   -1.00087   -120.195   241544
17   25   -1.00071   -120.9   241544
17   26   -1.0007   -121.62   241544
17   27   -1.00065   -122.328   241544
17   28   -1.00035   -123.027   241544
17   29   -1.00017   -123.736   241544
17   30   -1.00029   -124.447   241544
17   31   -0.999959   -125.152   241544
17   32   -0.99988   -125.871   241544
17   33   -1.00041   -126.586   241544
17   34   -0.999858   -127.289   241544
17   35   -0.999276   -127.998   241544
17   36   -0.999833   -128.707   241544
17   37   -0.999519   -129.405   241544
17   38   -0.99908   -130.112   241544
17   39   -0.999924   -130.828   241544
17   40   -1   -131.534   241544
17   41   -0.999652   -132.238   241544
17   42   -1.00001   -132.948   241544
17   43   -0.999966   -133.655   241544
17   44   -0.999824   -134.367   241544
17   45   -1.00069   -135.081   241544
17   46   -1.00093   -135.788   241544
17   47   -1.00042   -136.498   241544
17   48   -1.00107   -137.202   241544
17   49   -1.00145   -137.91   241544
17   50   -1.00104   -138.627   241544
17   51   -1.00195   -139.348   241544
17   52   -1.00249   -140.061   241544
17   53   -1.0017   -140.764   241544
17   54   -1.00179   -141.478   241544
17   55   -1.00246   -142.195   241544
17   56   -1.00374   -142.92   241544
17   57   -1.00378   -143.629   241544
17   58   -1.00308   -144.329   241544
17   59   -1.00461   -145.06   241544
17   60   -1.00566   -145.791   241544
17   61   -1.00517   -146.493   241544
17   62   -1.00605   -147.211   241544
17   63   -1.00621   -147.924   241544
17   64   -1.00463   -148.601   241544
18   1   1.0067   -149.017   241546
18   2   1.00802   -148.34   241546
18   3   1.00776   -147.628   241546
18   4   1.00852   -146.93   241546
18   5   1.00828   -146.22   241546
18   6   1.00723   -145.489   241546
18   7   1.00667   -144.765   241546
18   8   1.00732   -144.072   241546
18   9   1.00681   -143.354   241546
18   10   1.00634   -142.631   241546
18   11   1.00674   -141.934   241546
18   12   1.00599   -141.21   241546
18   13   1.00537   -140.485   241546
18   14   1.00503   -139.778   241546
18   15   1.00426   -139.06   241546
18   16   1.00413   -138.349   241546
18   17   1.00434   -137.637   241546
18   18   1.00354   -136.911   241546
18   19   1.00328   -136.204   241546
18   20   1.00336   -135.5   241546
18   21   1.00236   -134.777   241546
18   22   1.00193   -134.058   241546
18   23   1.00251   -133.354   241546
18   24   1.00218   -132.646   241546
18   25   1.00194   -131.931   241546
18   26   1.00223   -131.223   241546
18   27   1.00149   -130.513   241546
18   28   1.00131   -129.802   241546
18   29   1.00171   -129.1   241546
18   30   1.00087   -128.382   241546
18   31   1.00068   -127.666   241546
18   32   1.0011   -126.966   241546
18   33   1.0004   -126.258   241546
18   34   1.0003   -125.553   241546
18   35   1.00061   -124.854   241546
18   36   0.999943   -124.145   241546
18   37   0.999678   -123.434   241546
18   38   1.00001   -122.727   241546
18   39   0.999495   -122.01   241546
18   40   0.999141   -121.295   241546
18   41   0.999721   -120.591   241546
18   42   0.999788   -119.888   241546
18   43   0.999054   -119.174   241546
18   44   0.999225   -118.461   241546
18   45   0.999618   -117.76   241546
18   46   0.99983   -117.055   241546
18   47   0.999841   -116.346   241546
18   48   0.999578   -115.642   241546
18   49   0.999716   -114.933   241546
18   50   0.999556   -114.224   241546
18   51   0.999365   -113.518   241546
18   52   0.999478   -112.815   241546
18   53   0.999423   -112.117   241546
18   54   0.99933   -111.414   241546
18   55   0.999521   -110.705   241546
18   56   1.00029   -109.997   241546
18   57   1.00013   -109.295   241546
18   58   0.99937   -108.591   241546
18   59   0.999601   -107.876   241546
18   60   0.999716   -107.16   241546
18   61   0.999762   -106.451   241546
18   62   0.999857   -105.741   241546
18   63   0.999584   -105.036   241546
18   64   0.99973   -104.342   241546
19   1   -1.00056   -104.199   241546
19   2   -0.998924   -104.892   241546
19   3   -0.999041   -105.592   241546
19   4   -0.999355   -106.304   241546
19   5   -0.999437   -107.008   241546
19   6   -0.999265   -107.712   241546
19   7   -0.999234   -108.424   241546
19   8   -0.999224   -109.133   241546
19   9   -0.999028   -109.842   241546
19   10   -0.99915   -110.554   241546
19   11   -0.999337   -111.262   241546
19   12   -0.999258   -111.964   241546
19   13   -0.998899   -112.673   241546
19   14   -0.999258   -113.383   241546
19   15   -0.999515   -114.086   241546
19   16   -0.999053   -114.792   241546
19   17   -0.999329   -115.507   241546
19   18   -0.999501   -116.217   241546
19   19   -0.999018   -116.929   241546
19   20   -0.998998   -117.644   241546
19   21   -0.998917   -118.35   241546
19   22   -0.998592   -119.063   241546
19   23   -0.999133   -119.784   241546
19   24   -0.999345   -120.488   241546
19   25   -0.99905   -121.194   241546
19   26   -0.999653   -121.917   241546
19   27   -0.99951   -122.627   241546
19   28   -0.998932   -123.331   241546
19   29   -0.999364   -124.044   241546
19   30   -0.999222   -124.747   241546
19   31   -0.99839   -125.45   241546
19   32   -0.998692   -126.168   241546
19   33   -0.999195   -126.864   241546
19   34   -0.998309   -127.564   241546
19   35   -0.998216   -128.287   241546
19   36   -0.998766   -128.994   241546
19   37   -0.998021   -129.701   241546
19   38   -0.997767   -130.423   241546
19   39   -0.998263   -131.124   241546
19   40   -0.997783   -131.819   241546
19   41   -0.99711   -132.529   241546
19   42   -0.997687   -133.228   241546
19   43   -0.997554   -133.923   241546
19   44   -0.996701   -134.635   241546
19   45   -0.99755   -135.344   241546
19   46   -0.998102   -136.057   241546
19   47   -0.996432   -136.764   241546
19   48   -0.996574   -137.466   241546
19   49   -0.997943   -138.187   241546
19   50   -0.997949   -138.905   241546
19   51   -0.998358   -139.616   241546
19   52   -0.998806   -140.329   241546
19   53   -0.998897   -141.043   241546
19   54   -0.999043   -141.748   241546
19   55   -0.999525   -142.466   241546
19   56   -1.00015   -143.197   241546
19   57   -1.00038   -143.905   241546
19   58   -1.00084   -144.622   241546
19   59   -1.00166   -145.361   241546
19   60   -1.00111   -146.059   241546
19   61   -1.00154   -146.766   241546
19   62   -1.00215   -147.481   241546
19   63   -1.002   -148.184   241546
19   64   -1.00405   -148.926   241546
20   1   1.00261   -148.702   241548
20   2   1.00288   -148.007   241548
20   3   0.999756   -147.251   241548
20   4   1.00029   -146.556   241548
20   5   1.0007   -145.878   241548
20   6   0.999744   -145.158   241548
20   7   0.999061   -144.426   241548
20   8   0.998778   -143.727   241548
20   9   0.998026   -143.004   241548
20   10   0.998075   -142.281   241548
20   11   0.997643   -141.579   241548
20   12   0.996785   -140.859   241548
20   13   0.997327   -140.153   241548
20   14   0.998456   -139.464   241548
20   15   0.998125   -138.749   241548
20   16   0.997239   -138.03   241548
20   17   0.997392   -137.326   241548
20   18   0.997452   -136.621   241548
20   19   0.997394   -135.914   241548
20   20   0.997247   -135.214   241548
20   21   0.996969   -134.513   241548
20   22   0.997448   -133.804   241548
20   23   0.997491   -133.09   241548
20   24   0.996946   -132.385   241548
20   25   0.997355   -131.683   241548
20   26   0.997463   -130.982   241548
20   27   0.996808   -130.28   241548
20   28   0.997653   -129.576   241548
20   29   0.998239   -128.874   241548
20   30   0.997424   -128.165   241548
20   31   0.997666   -127.454   241548
20   32   0.998355   -126.756   241548
20   33   0.997668   -126.05   241548
20   34   0.997484   -125.332   241548
20   35   0.998268   -124.629   241548
20   36   0.99796   -123.921   241548
20   37   0.99769   -123.2   241548
20   38   0.998013   -122.499   241548
20   39   0.997792   -121.794   241548
20   40   0.99771   -121.069   241548
20   41   0.998125   -120.363   241548
20   42   0.997922   -119.663   241548
20   43   0.997699   -118.951   241548
20   44   0.997647   -118.243   241548
20   45   0.997729   -117.535   241548
20   46   0.998346   -116.822   241548
20   47   0.998178   -116.112   241548
20   48   0.997874   -115.407   241548
20   49   0.998468   -114.694   241548
20   50   0.99846   -113.983   241548
20   51   0.997865   -113.28   241548
20   52   0.998168   -112.57   241548
20   53   0.998306   -111.868   241548
20   54   0.998041   -111.167   241548
20   55   0.998271   -110.446   241548
20   56   0.998012   -109.727   241548
20   57   0.997738   -109.021   241548
20   58   0.998017   -108.309   241548
20   59   0.998187   -107.603   241548
20   60   0.998158   -106.901   241548
20   61   0.998089   -106.19   241548
20   62   0.99823   -105.483   241548
20   63   0.998142   -104.777   241548
20   64   0.999296   -104.068   241548
